Topic 5 Problem Set
…
rev %>%
  filter(sentiment != -2.5) %>%
  unnest_tokens(word, text) %>%
  # It's unclear in the question whether we should include the word "hotel" or not
  # anti_join(rbind("hotel", tidytext::stop_words, by = "word")) %>%
  anti_join(rbind(tidytext::stop_words, by = "word")) %>%
  count(sentiment, word, sort = TRUE) %>%
  group_by(sentiment) %>%
  mutate(total = sum(n)) %>%
  bind_tf_idf(word, sentiment, n) %>%
  arrange(-tf_idf) %>%
  head(25)

## # A tibble: 25 x 7
## # Groups:   sentiment [5]
##    sentiment word          n  total       tf   idf   tf_idf
##        <dbl> <chr>     <int>  <int>    <dbl> <dbl>    <dbl>
##  1      -1.5 i.i          11  24838 0.000443 1.61  0.000713
##  2       2.5 fantastic   291 123950 0.00235  0.223 0.000524
##  3       0.5 aviawest     11  46653 0.000236 1.61  0.000379
##  4       0.5 rosedale     10  46653 0.000214 1.61  0.000345
##  5       2.5 delicious    82 123950 0.000662 0.511 0.000338
##  6      -1.5 3br           5  24838 0.000201 1.61  0.000324
##  7      -1.5 alarms        5  24838 0.000201 1.61  0.000324
##  8      -0.5 funicular     5  26780 0.000187 1.61  0.000300
##  9       1.5 fantastic   128  98013 0.00131  0.223 0.000291
## 10      -0.5 rita          8  26780 0.000299 0.916 0.000274
## # ... with 15 more rows
