Topic 4 Lab
…
wv = right_join(countrycode, wv7, by = c("V2" = "B_COUNTRY"))

wv$regimeType = case_when(
  wv$polity >= 6 ~ "Democracy",
  wv$polity <= -6 ~ "Autocracy",
  is.na(wv$polity) ~ "NA",
  wv$polity %in% c(-5:5) ~ "Authoritarian"
)

wv

## # A tibble: 69,578 x 19
##       V2 country SurveyYear BirthYear Satisfied Income Education Immigrant
##    <dbl> <chr>        <dbl>     <dbl>     <dbl>  <dbl>     <dbl>     <dbl>
##  1    20 Andorra       2018      1958        10      5         3         2
##  2    20 Andorra       2018      1971         9      9         7         1
##  3    20 Andorra       2018      1969         9      5         7         2
##  4    20 Andorra       2018      1956         8      4         2         2
##  5    20 Andorra       2018      1969         7      4         2         2
##  6    20 Andorra       2018      1967        10      5         1         2
##  7    20 Andorra       2018      1985         5      2         1         2
##  8    20 Andorra       2018      1963         8     NA         4         2
##  9    20 Andorra       2018      1978         8      4         1         2
## 10    20 Andorra       2018      1979        10      6         5         2
## # ... with 69,568 more rows, and 11 more variables: ImmigrantMother <dbl>,
## #   ImmigrantFather <dbl>, Age <dbl>, Male <dbl>, Marital <dbl>,
## #   GDPpercap <dbl>, giniWB <dbl>, polity <dbl>, fhregion <dbl>,
## #   lifeexpect <dbl>, regimeType <chr>
…
df$regimeType = case_when(
  df$avgpol >= 6 ~ "Democracy",
  df$avgpol <= -6 ~ "Autocracy",
  df$avgpol %in% c(-5:5) ~ "Authoritarian"
)

print(df)

## # A tibble: 44 x 5
##    country    avgsat avggdp avgpol regimeType   
##    <chr>       <dbl>  <dbl>  <dbl> <chr>        
##  1 Argentina    7.70 22034.      9 Democracy    
##  2 Australia    7.53 49756.     10 Democracy    
##  3 Bangladesh   7.60  4754.     -6 Autocracy    
##  4 Bolivia      7.47  8724.      7 Democracy    
##  5 Brazil       7.56 14652.      8 Democracy    
##  6 Chile        7.19 24226.     10 Democracy    
##  7 China        7.42 16117.     -7 Autocracy    
##  8 Colombia     8.19 14731.      7 Democracy    
##  9 Cyprus (G)   6.67 39545.     10 Democracy    
## 10 Ecuador      7.79 11375.      5 Authoritarian
## # ... with 34 more rows
…
